Chapter 6 ラスタとベクタの相互作用 | Geocomputation with R
…
上のコードチャンクは、Chapter 3 で説明されているように、ポリゴン ID ごとのセル値の要約統計を提供するために dplyr を使用した。
その結果、例えば公園の最高標高が海抜約 2,661 m であることなど、有用な要約が得られる (標準偏差など、他の要約統計もこの方法で計算できる)。
この例ではポリゴンが 1 つしかないので 1 行のデータフレームだが、複数の範囲選択ポリゴンが使用されている場合にも動作する。

同様のアプローチは、ポリゴン内のカテゴリ的なラスタ値の出現をカウントする場合にも有効である。
これは、Figure 6.4 (B) の spDataLarge パッケージの土地被覆データセット (nlcd) を使って説明され、以下のコードで実証されている。

nlcd = rast(system.file("raster/nlcd.tif", package = "spDataLarge"))
zion2 = st_transform(zion, st_crs(nlcd))
zion_nlcd = terra::extract(nlcd, zion2)
zion_nlcd |> 
  group_by(ID, levels) |>
  count()
#> # A tibble: 7 × 3
#> # Groups:   ID, levels [7]
#>      ID levels         n
#>   <dbl> <fct>      <int>
#> 1     1 Developed   4205
#> 2     1 Barren     98285
#> 3     1 Forest    298299
#> 4     1 Shrubland 203701
#> # ℹ 3 more rows
…
